"id","revision_id","langcode","imdb_title","imdb_id","released_year","viewer_rating","released_date","runtime","genre","director","writer","actors","plot__value","plot__format","language","country","awards","poster","ratings","metascore","imdb_rating","imdb_votes","type","dvd_released_year","box_office_collections","production","website","api_response","status","uid","created","changed","default_langcode","revision_translation_affected"
"1","68","en","Batman","tt0096895","1989","PG-13","614588995","126 min","Action, Adventure","Tim Burton","Bob Kane, Sam Hamm, Warren Skaaren","Michael Keaton, Jack Nicholson, Kim Basinger","The Dark Knight of Gotham City begins his war on crime with his first major enemy being Jack Napier, a criminal who becomes the clownishly homicidal Joker.","basic_html","English, French, Spanish","United States, United Kingdom","Won 1 Oscar. 9 wins & 26 nominations total","https://m.media-amazon.com/images/M/MV5BMTYwNjAyODIyMF5BMl5BanBnXkFtZTYwNDMwMDk2._V1_SX300.jpg","NULL","69","7.5","367,101","movie","872233795","$251,409,241","N/A","N/A","True","1","0","1650178891","1650524995","1","1"
"2","2","en","Superman","tt0078346","1978","PG","15","143 min","Action, Adventure, Sci-Fi","Richard Donner","Jerry Siegel, Joe Shuster, Mario Puzo","Christopher Reeve, Margot Kidder, Gene Hackman","An alien orphan is sent from his dying planet to Earth, where he grows up to become his adoptive home's first and greatest superhero.","basic_html","English","United States, United Kingdom, Canada","Won 1 Oscar. 17 wins & 23 nominations total","https://m.media-amazon.com/images/M/MV5BMzA0YWMwMTUtMTVhNC00NjRkLWE2ZTgtOWEzNjJhYzNiMTlkXkEyXkFqcGdeQXVyNjc1NTYyMjg@._V1_SX300.jpg","NULL","81","7.4","171,011","movie","0","NULL","N/A","N/A","True","0","0","1650178949","1650178949","1","1"
"3","3","en","Superman","tt0213370","1988","N/A","17","30 min","Animation, Short, Action","N/A","N/A","Beau Weaver, Ginny McSwain, Mark L. Taylor","The Man of Steel fights evil in the city of Metropolis and beyond. Each episode ends with a short vignette about key events from Kal-El's youth on Earth.","basic_html","English","United States","N/A","https://m.media-amazon.com/images/M/MV5BMTY5ODI4NzMtM2EzYS00ZGFlLThjMjgtODMyN2QwYjBkYTYwXkEyXkFqcGdeQXVyMTEyNzgwMDUw._V1_SX300.jpg","NULL","N/A","7.0","912","series","0","NULL","NULL","NULL","True","0","0","1650178975","1650178975","1","1"
"4","4","en","Batman","tt0059968","1966–1968","TV-G","-125254564","25 min","Action, Adventure, Comedy","N/A","Lorenzo Semple Jr., William Dozier","Adam West, Burt Ward, Alan Napier","The Caped Crusader and his young ward battle evildoers in Gotham City.","basic_html","English","United States","Nominated for 3 Primetime Emmys. 5 wins & 6 nominations total","https://m.media-amazon.com/images/M/MV5BMTkzNDY5NTg5MF5BMl5BanBnXkFtZTgwNzI4NzM1MjE@._V1_SX300.jpg","NULL","N/A","7.6","21,458","series","0","NULL","NULL","NULL","True","1","0","1650178995","1650179035","1","1"
"5","5","en","Spiderman","tt0100669","1990","N/A","0","5 min","Short","Christian Davi","N/A","N/A","N/A","basic_html","German","Switzerland","N/A","N/A","NULL","N/A","5.6","96","movie","0","NULL","N/A","N/A","True","0","0","1650179107","1650179107","1","1"
"6","6","en","Gold Is Not All","tt0001234","1910","N/A","28","16 min","Short, Drama","D.W. Griffith","Stanner E.V. Taylor","Marion Leonard, Dell Henderson, Gladys Egan","The young heiress is walking with her sweetheart in the grounds of her mansion, seemingly happy, while on the roadway, with but a wall dividing, stroll the poor young couple. What a contrast. Here are four young souls starting on the","basic_html","None, English","United States","N/A","N/A","NULL","N/A","5.4","43","movie","0","NULL","N/A","N/A","True","0","0","1650191299","1650191299","1","1"
"7","7","en","Die Zwillinge vom Zillertal","tt0051234","1957","N/A","0","94 min","Comedy","Harald Reinl","Karl Heinz Busse, Harald Reinl","Isa Günther, Jutta Günther, Joachim Fuchsberger","N/A","basic_html","German","West Germany","N/A","https://m.media-amazon.com/images/M/MV5BZjM0YTk0N2MtNTc3Ny00ZmRkLWFkZDYtYTQzMTNmMzg1MjUwXkEyXkFqcGdeQXVyMDM1MzIyMQ@@._V1_SX300.jpg","NULL","N/A","5.1","55","movie","0","NULL","N/A","N/A","True","0","0","1650191312","1650191312","1","1"
"8","8","en","The Zurich Engagement","tt0051235","1957","N/A","16","106 min","Comedy","Helmut Käutner","Barbara Noack, Heinz Pauck, Helmut Käutner","Liselotte Pulver, Paul Hubschmid, Bernhard Wicki","Juliane Thomas is an ambitious but unemployed young writer. After breaking up with her lover she works at a dentist friend to make ends meet. One day she instantly falls in love with one of the patients (Jean Berner) and promptly wri","basic_html","German, English","West Germany","N/A","https://m.media-amazon.com/images/M/MV5BMTY0OWRmNjUtZWU1NC00YjkzLTk5NDYtMGFjOGJhYmRmMjBjXkEyXkFqcGdeQXVyMzg1ODEwNQ@@._V1_SX300.jpg","NULL","N/A","6.5","414","movie","0","NULL","N/A","N/A","True","0","0","1650191318","1650191318","1","1"
"9","9","en","Zwei Matrosen auf der Alm","tt0051232","1958","N/A","3","90 min","Comedy","Peter Hamel","Ulrich Ritzer, Erwin Kreker, J. Kreker","Anita Gutwell, Helmuth Schneider, Gert Wiedenhofen","N/A","basic_html","German","West Germany","N/A","https://m.media-amazon.com/images/M/MV5BOWY1NWU3ZjUtYzUyOC00YzlkLTkyY2YtZTMxMGQ3MTUwODNkXkEyXkFqcGdeQXVyNjUzNzQ4NDQ@._V1_SX300.jpg","NULL","N/A","3.2","17","movie","0","NULL","N/A","N/A","True","0","0","1650191335","1650191335","1","1"
"10","58","en","A Kiss in Time","tt0012355","1921","N/A","-1530638585","50 min","Comedy","Thomas N. Heffron","Douglas Z. Doty","Wanda Hawley, T. Roy Barnes, Bertram Johns","N/A","basic_html","None","United States","N/A","N/A","[]","N/A","N/A","N/A","movie","0","N/A","N/A","N/A","True","1","0","1650191421","1650523012","1","1"
"11","11","en","Mortal Kombat: Defenders of the Realm","tt0122355","1995–1996","TV-Y7","843301839","30 min","Animation, Action, Adventure","N/A","N/A","Clancy Brown, Olivia d'Abo, Dorian Harewood","After the events of the first Mortal Kombat movie and the third MK video game, the evil forces of Outworld begin their invasion of the Earthrealm and only Raiden and his Mortal Kombat champions stand in their way.","basic_html","English","United States","N/A","https://m.media-amazon.com/images/M/MV5BYTdiOTg0ZmMtNGE1NC00MGM4LTkxZGYtYzdiODRjNDE3MzIxXkEyXkFqcGdeQXVyNTAyODkwOQ@@._V1_SX300.jpg","NULL","N/A","6.0","1,287","series","0","NULL","NULL","NULL","True","1","0","1650191433","1650191439","1","1"
"12","12","en","The Mysterious Cities of Gold","tt0122356","1982–1983","TV-Y7","520511452","28 min","Animation, Adventure, Comedy","N/A","N/A","Janice Chaikelson, Adrian Knight, Michael Rudder","A trio of kids must search throughout 16th Century South America for personal answers linked to the legendary El Dorado.","basic_html","French, Japanese","France, Japan, Luxembourg","N/A","https://m.media-amazon.com/images/M/MV5BMTkxOTk0NjU1M15BMl5BanBnXkFtZTcwMzk4OTk1MQ@@._V1_SX300.jpg","NULL","N/A","8.7","3,904","series","0","NULL","NULL","NULL","True","1","0","1650191448","1650191451","1","1"
"13","13","en","New Love, American Style","tt0122357","1985–1986","N/A","504181860","30 min","Comedy","N/A","N/A","Bob Saget, Anne Lockhart, Ellen Bry","A remake of the original show updated for the 80s, comically dealing with the problems of love and relationships in a series of vignettes.","basic_html","English","United States","3 nominations","https://m.media-amazon.com/images/M/MV5BM2M0Y2E4YzEtYWJiNC00NTc2LWI1ZjMtMjQ1ZmRmMWZmNTkyXkEyXkFqcGdeQXVyMDYxMTUwNg@@._V1_SX300.jpg","NULL","N/A","6.9","43","series","0","NULL","NULL","NULL","True","1","0","1650191455","1650191458","1","1"
"14","14","en","Oliver Maass","tt0122358","1985","N/A","504354667","45 min","Adventure, Drama, Sci-Fi","N/A","N/A","Josef Gröbmayr, Jane Tilden, Robert Atzorn","A boy discovers a magical violin that allows the player to see into the future.","basic_html","German","West Germany","N/A","https://m.media-amazon.com/images/M/MV5BNzc0YTUzNGItYTE5NC00ZDFkLWE0M2UtM2U5MmVjNzM4YWRjXkEyXkFqcGdeQXVyNTM3MDMyMDQ@._V1_SX300.jpg","NULL","N/A","7.0","59","series","0","NULL","NULL","NULL","True","1","0","1650191462","1650191465","1","1"
"15","15","en","Little Miss Hawkshaw","tt0012399","1921","NULL","-1526042476","N/A","N/A","Carl Harbaugh","Carl Harbaugh (story)","Eileen Percy, Eric Mayne, Leslie Casey, Donald Keith","NULL","basic_html","English","USA","N/A","N/A","[]","N/A","N/A","N/A","movie","0","N/A","N/A","N/A","True","1","0","1650193908","1650194324","1","1"
"16","16","en","The Little Minister","tt0012398","1921","NULL","-1515328026","60 min","Drama","Penrhyn Stanlaws","J.M. Barrie, Edfrid A. Bingham","Betty Compson, George Hackathorne, Edwin Stevens","NULL","basic_html","None","United States","N/A","https://m.media-amazon.com/images/M/MV5BZTA4ZmE4OGQtNWQyNi00MDk4LWE0ZTMtODI4YjFjZTI0N2QxXkEyXkFqcGdeQXVyMTcyODY2NDQ@._V1_SX300.jpg","[{""Source"":""Internet Movie Database"",""Value"":""6.9\/10""}]","N/A","6.9","57","movie","0","N/A","N/A","N/A","True","1","0","1650194644","1650195174","1","1"
"17","17","en","Little Lord Fauntleroy","tt0012397","1921","NULL","-1524054390","112 min","Drama","Alfred E. Green, Jack Pickford","Frances Hodgson Burnett, Bernard McConville","Mary Pickford, Claude Gillingwater, Joseph J. Dowling","NULL","basic_html","English","United States","N/A","https://m.media-amazon.com/images/M/MV5BMzlkMGNhNzAtOWUyMC00ODdiLTk3MGItMmEwMTI3MjBiOGM0XkEyXkFqcGdeQXVyMjcxNjI4NTk@._V1_SX300.jpg","NULL","N/A","6.8","327","movie","0","$900,000","N/A","N/A","True","1","0","1650195180","1650195208","1","1"
"18","18","en","Madame de Thèbes","tt0005683","1915","NULL","-1715430366","68 min","Drama","Mauritz Stiller","Martin Jørgensen, Louis Levy","John Ekman, Märta Halldén, Nicolai Johannsen","NULL","basic_html","None","Sweden","N/A","https://m.media-amazon.com/images/M/MV5BYThhMTcyM2ItNDJhMy00OTFjLWE2NjktYzA4NDMyODVkNmE0XkEyXkFqcGdeQXVyMjUyNDk2ODc@._V1_SX300.jpg","NULL","N/A","5.9","44","movie","0","N/A","N/A","N/A","True","1","0","1650195220","1650195234","1","1"
"19","19","en","Shanghaied","tt0001034","1909","NULL","-1919679635","N/A","Short, Drama","Gilbert M. 'Broncho Billy' Anderson","Gilbert M. 'Broncho Billy' Anderson","Gilbert M. 'Broncho Billy' Anderson","NULL","basic_html","None","United States","N/A","N/A","NULL","N/A","N/A","N/A","movie","0","N/A","N/A","N/A","True","1","0","1650195562","1650195562","1","1"
"20","20","en","She Would Be an Actress","tt0001035","1909","NULL","-1906286862","5 min","Short","N/A","N/A","N/A","NULL","basic_html","None, English","United States","N/A","https://m.media-amazon.com/images/M/MV5BZDdmMjdmNTUtN2EzNy00OTE1LTgwYTctZTBkYTgwMWRmNjZhXkEyXkFqcGdeQXVyMTIzNDMxMDE@._V1_SX300.jpg","NULL","N/A","5.1","22","movie","0","N/A","N/A","N/A","True","1","0","1650196323","1650196338","1","1"
"21","21","en","Sherlock Holmes IV","tt0001036","1909","NULL","-1914667649","N/A","Short, Mystery","Viggo Larsen","N/A","August Blom, Viggo Larsen, Gustav Lund, Elith Pio","NULL","basic_html","None","Denmark","N/A","N/A","NULL","N/A","3.5","8","movie","0","N/A","N/A","N/A","True","1","0","1650196347","1650196347","1","1"
"22","22","en","Sherlock Holmes V","tt0001037","1909","NULL","-1904386041","N/A","Short, Drama","Viggo Larsen","N/A","Holger-Madsen, Viggo Larsen, Gustav Lund","NULL","basic_html","None","Denmark","N/A","N/A","NULL","N/A","3.9","18","movie","0","N/A","N/A","N/A","True","1","0","1650196356","1650196356","1","1"
"23","23","en","Sherlock Holmes VI","tt0001038","1910","NULL","-1891771423","N/A","N/A","N/A","N/A","N/A","NULL","basic_html","None","Denmark","N/A","N/A","NULL","N/A","3.5","20","movie","0","N/A","N/A","N/A","True","1","0","1650196576","1650196576","1","1"
"24","24","en","A Sinner's Repentance","tt0001039","1909","NULL","-1896091412","N/A","Short, Drama","Theo Frenkel","N/A","N/A","<p>N/A</p>
","basic_html","None","United Kingdom","N/A","N/A","NULL","N/A","N/A","N/A","movie","1650199155","N/A","N/A","N/A","True","1","0","1650196584","1650199155","1","1"
"25","25","en","A Sister's Love: A Tale of the Franco-Prussian War","tt0001040","1909","NULL","-1924862602","N/A","Short, Drama","Van Dyke Brooke","N/A","Mary Fuller","NULL","basic_html","None","United States","N/A","N/A","NULL","N/A","N/A","N/A","movie","0","N/A","N/A","N/A","True","1","0","1650196595","1650196595","1","1"
"26","26","en","The Kiss","tt0012356","1921",NULL,"-1530379718","50 min","Drama","Jack Conway","Johnston McCulley, George W. Pyper, Andrew Percival Younger","George Periolat, W.E. Lawrence, J.P. Lockney",NULL,NULL,"None, English","United States","N/A","https://m.media-amazon.com/images/M/MV5BNTY5YjEyNGQtMGQ5ZC00OTFjLWI0OTMtNDJlMmQ2NzZjYThiXkEyXkFqcGdeQXVyMjUxODE0MDY@._V1_SX300.jpg",NULL,"N/A","N/A","N/A","movie",NULL,"N/A","N/A","N/A","True","1","1","1650522681","1650522681","1","1"
"27","27","en","Kitchen, Bedroom, and Bath","tt0012357","1921",NULL,"-1525627712","N/A","Animation, Comedy, Short","Frank Moser","N/A","N/A",NULL,NULL,"N/A","USA","N/A","N/A",NULL,"N/A","N/A","N/A","movie",NULL,"N/A","N/A","N/A","True","1","1","1650522687","1650522687","1","1"
"28","28","en","Kleider machen Leute","tt0012358","1921",NULL,"-1515000507","N/A","N/A","Hans Steinhoff","Hans Steinhoff","Hermann Thimig, Dora Kaiser, Hugo Thimig",NULL,NULL,"None, German","Austria, Germany","N/A","N/A",NULL,"N/A","5.0","8","movie",NULL,"N/A","N/A","N/A","True","1","1","1650522692","1650522692","1","1"
"29","29","en","Know Your Men","tt0012359","1921",NULL,"-1540142902","N/A","N/A","Charles Giblyn","Paul Sloane","Pearl White, Wilfred Lytell, Downing Clarke, Harry C. Browne",NULL,NULL,"N/A","USA","N/A","https://m.media-amazon.com/images/M/MV5BOGMxYzAxYmMtNjgwZS00ZWE3LTgzMTAtMDZiMWIxMWUxZDc4XkEyXkFqcGdeQXVyMDUyOTUyNQ@@._V1_SX300.jpg",NULL,"N/A","N/A","N/A","movie",NULL,"N/A","N/A","N/A","True","1","1","1650522696","1650522696","1","1"
"30","30","en","Krümelchen geht jagen","tt0012360","1921",NULL,NULL,"N/A","N/A","William Karfiol","N/A","Neumann-Schüler",NULL,NULL,"N/A","Germany","N/A","N/A",NULL,"N/A","N/A","N/A","movie",NULL,"N/A","N/A","N/A","True","1","1","1650522702","1650522702","1","1"
"31","31","en","À pied, à cheval et en voiture","tt0051236","1957",NULL,NULL,"87 min","Comedy","Maurice Delbez","Jacques Antoine, Serge de Boissac, Jean-Jacques Vital","Noël-Noël, Denise Grey, Gil Vidal",NULL,NULL,"French","France, Italy","N/A","https://m.media-amazon.com/images/M/MV5BYTA5NTBiMTItYmUwNC00N2YwLWI4YTUtMDEwZWQ0MjYzOWU4XkEyXkFqcGdeQXVyMzYyNjE5NDY@._V1_SX300.jpg",NULL,"N/A","5.8","112","movie",NULL,"N/A","N/A","N/A","True","1","1","1650522721","1650522721","1","1"
"32","32","en","The Man Who Wagged His Tail","tt0051237","1957",NULL,"-386789273","90 min","Comedy, Fantasy","Ladislao Vajda","Ottavio Alessi, István Békeffy, Ugo Guerra","Peter Ustinov, Pablito Calvo, Aroldo Tieri",NULL,NULL,"Italian","Italy, Spain","1 win & 2 nominations","https://m.media-amazon.com/images/M/MV5BNTQ1NWE1Y2UtYjcyZC00MTg3LTlhNTgtYzAyZjJiNTU5N2I3XkEyXkFqcGdeQXVyMTQ3Njg3MQ@@._V1_SX300.jpg",NULL,"N/A","7.1","209","movie",NULL,"N/A","N/A","N/A","True","1","1","1650522726","1650522726","1","1"
"33","33","en","Los ángeles del volante","tt0051238","1957",NULL,"-389122068","100 min","Comedy","Ignacio F. Iquino","Pedro Masó, Rafael J. Salvia, Ignacio F. Iquino","Fernando Fernán Gómez, José Luis Ozores, José Isbert",NULL,NULL,"Spanish","Spain","1 win","https://m.media-amazon.com/images/M/MV5BNWFjNmM3NDctZTM3Zi00ZDQ2LWE2YzctMDI1MGViNGZhMDU0L2ltYWdlL2ltYWdlXkEyXkFqcGdeQXVyNzA4ODc3ODU@._V1_SX300.jpg",NULL,"N/A","6.1","48","movie",NULL,"N/A","N/A","N/A","True","1","1","1650522731","1650522731","1","1"
"34","34","en","#DUPE#","tt0050437","1957",NULL,NULL,"N/A","N/A","N/A","N/A","N/A",NULL,NULL,"N/A","N/A","N/A","N/A",NULL,"N/A","N/A","N/A","movie",NULL,"N/A","N/A","N/A","True","1","1","1650522738","1650522738","1","1"
"35","35","en","El árbol de España","tt0051240","1957",NULL,NULL,"16 min","Documentary, Short","Jesús Franco","José María Forqué, Jesús Franco, Rafael García Serrano","Magdalena Castro, Lola Cervantes, Paco de Ronda",NULL,NULL,"Spanish","Spain","N/A","N/A",NULL,"N/A","3.9","12","movie",NULL,"N/A","N/A","N/A","True","1","1","1650522749","1650522749","1","1"
"36","36","en","Åsa-Nisse i full fart","tt0051241","1957",NULL,"-386962041","98 min","Comedy","Ragnar Frisk","Stig Cederholm, Lennart Palme","John Elfström, Artur Rolén, Helga Brofeldt",NULL,NULL,"Swedish","Sweden","N/A","https://m.media-amazon.com/images/M/MV5BMjhhYTljZGItOWFiNS00MmU0LWIwNjEtNzc4NDZlMDA0YjA2XkEyXkFqcGdeQXVyMjUyNDk2ODc@._V1_SX300.jpg",NULL,"N/A","4.0","139","movie",NULL,"N/A","N/A","N/A","True","1","1","1650522757","1650522757","1","1"
"37","37","en","Échenme al gato","tt0051242","1958",NULL,"-371323637","90 min","Comedy, Crime, Fantasy","Alejandro Galindo","Pancho Córdova, Valentín Gazcón","Adalberto Martínez, Ariadne Welter, Eulalio González",NULL,NULL,"Spanish","Mexico","N/A","https://m.media-amazon.com/images/M/MV5BZjZhYmFjZGEtMmNlOS00ZjJiLWJhNjQtZjc1OTBiY2Q1ODZmXkEyXkFqcGdeQXVyNDUxNjc5NjY@._V1_SX300.jpg",NULL,"N/A","5.6","15","movie",NULL,"N/A","N/A","N/A","True","1","1","1650522762","1650522762","1","1"
"38","38","en","Égi madár","tt0051243","1958",NULL,"-371928432","103 min","Drama","Imre Fehér","Tibor Cseres, Zsigmond Móricz","Ildikó Szabó, Ádám Szirtes, Ferenc Kiss",NULL,NULL,"Hungarian","Hungary","N/A","https://m.media-amazon.com/images/M/MV5BMTAyNjI5NDYtOWQyMS00OTRmLTkxYzgtMTY2YmI3ZGY4MDljXkEyXkFqcGdeQXVyNzA1OTk3Mw@@._V1_SX300.jpg",NULL,"N/A","5.5","17","movie",NULL,"N/A","N/A","N/A","True","1","1","1650522767","1650522767","1","1"
"39","39","en","Éjfélkor","tt0051244","1957",NULL,"-379272426","90 min","Drama","György Révész","Iván Boldizsár, László Bánk, György Révész","Éva Ruttkai, Miklós Gábor, Zsuzsa Bánki",NULL,NULL,"Hungarian","Hungary","N/A","https://m.media-amazon.com/images/M/MV5BOGFhYTAzOTQtZjQ5MC00Y2U5LWFjZmItNzg4NmRlZDMyNzVkXkEyXkFqcGdeQXVyNzA1OTk3Mw@@._V1_SX300.jpg",NULL,"N/A","6.9","28","movie",NULL,"N/A","N/A","N/A","True","1","1","1650522773","1650522773","1","1"
"40","40","en","L'étrange Monsieur Steve","tt0051245","1957",NULL,"-394997218","90 min","Drama","Raymond Bailly","Raymond Bailly, Frédéric Dard, Marcel Prêtre","Jeanne Moreau, Philippe Lemaire, Armand Mestral",NULL,NULL,"French","France","N/A","https://m.media-amazon.com/images/M/MV5BMDY3MjhkYTktM2QyMC00YjFkLTlmMGMtMTUzYzNmN2RmYWUzXkEyXkFqcGdeQXVyMzYyNjE5NDY@._V1_SX300.jpg",NULL,"N/A","6.6","116","movie",NULL,"N/A","N/A","N/A","True","1","1","1650522780","1650522780","1","1"
"41","41","en","El último cuplé","tt0051246","1957",NULL,"-391886814","110 min","Drama, Musical","Juan de Orduña","Antonio Mas Guindal, Jesús María de Arozamena","Sara Montiel, Armando Calvo, Enrique Vera",NULL,NULL,"Spanish","Spain","2 wins","https://m.media-amazon.com/images/M/MV5BNDQzOGJiOWYtZGM5Yy00NjNiLTk3ODAtMjk1ZmQzMzllYmE1XkEyXkFqcGdeQXVyMTk4MDgwNA@@._V1_SX300.jpg",NULL,"N/A","6.2","205","movie",NULL,"N/A","N/A","N/A","True","1","1","1650522785","1650522785","1","1"
"42","42","en","77 Sunset Strip","tt0051247","1958–1964",NULL,"-354302808","60 min","Action, Crime, Drama","N/A","Roy Huggins","Efrem Zimbalist Jr., Edd Byrnes, Roger Smith",NULL,NULL,"English","United States","Nominated for 2 Primetime Emmys. 2 wins & 2 nominations total","https://m.media-amazon.com/images/M/MV5BYzJjMjRmMzUtNzk3Yi00MzI4LTgzYWMtZDFkYWE3NDlhNGU0XkEyXkFqcGdeQXVyNzkzODA4NzI@._V1_SX300.jpg",NULL,"N/A","7.8","1,399","series",NULL,NULL,NULL,NULL,"True","1","1","1650522790","1650522790","1","1"
"43","43","en","Accused","tt0051248","1958–1959",NULL,"-349032402","30 min","Drama","N/A","N/A","Edgar Allan Jones Jr., William Gwinn, Timothy Farrell, Jim Hodson",NULL,NULL,"English","USA","N/A","N/A",NULL,"N/A","N/A","N/A","series",NULL,NULL,NULL,NULL,"True","1","1","1650522797","1650522797","1","1"
"44","44","en","The Adventures of Tugboat Annie","tt0051249","1957–",NULL,"-378753987","30 min","Adventure, Comedy","N/A","N/A","Minerva Urecal, Walter Sande, Don Orlando",NULL,NULL,"English","United Kingdom, Canada, United States","N/A","https://m.media-amazon.com/images/M/MV5BMzU1NWIyZGQtNTcxZi00MTRlLTlkN2MtMmUwMDBkZTMwZmJjXkEyXkFqcGdeQXVyMDU4MTQ0Ng@@._V1_SX300.jpg",NULL,"N/A","7.2","142","series",NULL,NULL,NULL,NULL,"True","1","1","1650522812","1650522812","1","1"
"45","45","en","Adventures of the Sea Hawk","tt0051250","1958–",NULL,NULL,"30 min","Action","N/A","N/A","John Howard, John Lee, Michael Brennan, Mary Holland",NULL,NULL,"English","USA","N/A","N/A",NULL,"N/A","N/A","N/A","series",NULL,NULL,NULL,NULL,"True","1","1","1650522817","1650522817","1","1"
"46","46","en","The Ann Sothern Show","tt0051251","1958–1961",NULL,"-354648377","30 min","Comedy","N/A","N/A","Ann Sothern, Ann Tyrrell, Don Porter",NULL,NULL,"English","United States","Nominated for 1 Primetime Emmy. 1 win & 1 nomination total","https://m.media-amazon.com/images/M/MV5BYjVjMzdmYzMtNTM2Ni00YTk3LWI3MzQtNTVjMzY0MzMyZDgzXkEyXkFqcGdeQXVyMjcyMDU4NA@@._V1_SX300.jpg",NULL,"N/A","7.9","170","series",NULL,NULL,NULL,NULL,"True","1","1","1650522822","1650522822","1","1"
"47","47","en","Anybody Can Play","tt0051252","1958–",NULL,"-362597173","30 min","Game-Show","N/A","N/A","George Fenneman, Dolores Reed, Judy Bamber",NULL,NULL,"English","United States","N/A","N/A",NULL,"N/A","N/A","N/A","series",NULL,NULL,NULL,NULL,"True","1","1","1650522826","1650522826","1","1"
"48","48","en","Behind Closed Doors","tt0051253","1958–1959",NULL,"-354993969","30 min","Drama","N/A","N/A","Bruce Gordon, Ellis M. Zacharias, John Sutton",NULL,NULL,"English","United States","N/A","https://m.media-amazon.com/images/M/MV5BNTI3NjNkZTEtNzljZi00Yjk1LTllNjAtZGU5MDMxM2QwMGE2XkEyXkFqcGdeQXVyMjcyMDU4NA@@._V1_SX300.jpg",NULL,"N/A","7.7","29","series",NULL,NULL,NULL,NULL,"True","1","1","1650522830","1650522830","1","1"
"49","49","en","The Betty White Show","tt0051254","1958–",NULL,"-375643565","30 min","Comedy","N/A","N/A","Jimmy Boyd",NULL,NULL,"English","USA","N/A","N/A",NULL,"N/A","7.1","16","series",NULL,NULL,NULL,NULL,"True","1","1","1650522834","1650522834","1","1"
"50","50","en","Bid 'n' Buy","tt0051255","1958–",NULL,"-355771560","30 min","Game-Show","N/A","N/A","Bert Parks",NULL,NULL,"English","USA","N/A","N/A",NULL,"N/A","N/A","N/A","series",NULL,NULL,NULL,NULL,"True","1","1","1650522839","1650522839","1","1"
"51","51","en","The Big Game","tt0051256","1958–",NULL,"-356721955","30 min","Family, Game-Show","N/A","N/A","Tom Kennedy",NULL,NULL,"English","United States","N/A","N/A",NULL,"N/A","N/A","N/A","series",NULL,NULL,NULL,NULL,"True","1","1","1650522844","1650522844","1","1"
"52","52","en","Blue Peter","tt0051257","1958–",NULL,"-353784349","25 min","Family","N/A","John Hunter Blair","John Noakes, Peter Purves, Valerie Singleton",NULL,NULL,"English","United Kingdom","Won 7 BAFTA 10 wins & 15 nominations total","https://m.media-amazon.com/images/M/MV5BNTAxZTcwMGUtMzFkOS00OTU4LTg3YTgtMDRiNGMxNzA3YTJjXkEyXkFqcGdeQXVyMjU0MzY0MjE@._V1_SX300.jpg",NULL,"N/A","6.5","543","series",NULL,NULL,NULL,NULL,"True","1","1","1650522850","1650522850","1","1"
"53","53","en","The Bob Crosby Show","tt0051258","1958–",NULL,"-364497937","60 min","Comedy, Music","N/A","N/A","Gretchen Wyler, Bob Crosby, Georgia Gibbs",NULL,NULL,"English","USA","N/A","N/A",NULL,"N/A","N/A","N/A","series",NULL,NULL,NULL,NULL,"True","1","1","1650522862","1650522862","1","1"
"54","54","en","#DUPE#","tt0048865","1956–",NULL,NULL,"N/A","N/A","N/A","N/A","N/A",NULL,NULL,"N/A","N/A","N/A","N/A",NULL,"N/A","N/A","N/A","series",NULL,NULL,NULL,NULL,"True","1","1","1650522866","1650522866","1","1"
"55","55","en","Brains & Brawn","tt0051260","1958–",NULL,"-356635527","30 min","Family, Game-Show","N/A","N/A","Gypsy Rose Lee, Bert Wheeler",NULL,NULL,"English","USA","N/A","N/A",NULL,"N/A","N/A","N/A","series",NULL,NULL,NULL,NULL,"True","1","1","1650522872","1650522872","1","1"
"56","56","en","Bronco","tt0051261","1958–1962",NULL,"-355771520","60 min","Western","N/A","N/A","Ty Hardin, Robert Colbert, Clyde Howdy",NULL,NULL,"English","United States","N/A","https://m.media-amazon.com/images/M/MV5BOTQ4NjgyODE0OF5BMl5BanBnXkFtZTcwNzM2NjEzMQ@@._V1_SX300.jpg",NULL,"N/A","7.3","342","series",NULL,NULL,NULL,NULL,"True","1","1","1650522878","1650522878","1","1"
"57","57","en","Buckskin","tt0051262","1958–1959",NULL,"-362856316","30 min","Western","N/A","Harold Swanton","Tom Nolan, Sally Brophy, Mike Road",NULL,NULL,"English","United States","N/A","https://m.media-amazon.com/images/M/MV5BNTg0Nzk1MTY0MV5BMl5BanBnXkFtZTgwMTI5NTgyOTE@._V1_SX300.jpg",NULL,"N/A","7.9","41","series",NULL,NULL,NULL,NULL,"True","1","1","1650522883","1650522883","1","1"
